<?xml version="1.0" encoding="utf-8"?>
<!-- Generator: Adobe Illustrator 27.6.0, SVG Export Plug-In . SVG Version: 6.00 Build 0)  -->
<svg version="1.1" id="Layer_1" xmlns="http://www.w3.org/2000/svg" xmlns:xlink="http://www.w3.org/1999/xlink" x="0px" y="0px"
	 viewBox="0 0 51.1 62.1" style="enable-background:new 0 0 51.1 62.1;" xml:space="preserve">
<g>
	<path d="M14.5,14.3c-3,3-4.7,6.9-4.7,11.2c0,4.2,1.6,8.2,4.6,11.2l0.1,0.1c2.9,2.9,3.3,5.5,3.4,10h-0.4c-1.6,0-2.9,1.3-2.9,2.9v1
		c0,1.2,0.8,2.3,1.9,2.7V55c0,1.5,1.1,2.6,2.5,2.9v0.8c0,1.9,1.5,3.4,3.4,3.4h6.5c1.9,0,3.4-1.5,3.4-3.4V58c1.4-0.2,2.5-1.4,2.5-2.9
		v-1.6c1.1-0.4,1.9-1.5,1.9-2.7v-1c0-1.6-1.3-2.9-2.9-2.9h-0.4c0-4.5,0.4-7.1,3.4-10c6.2-6.2,6.2-16.2,0.1-22.4
		C30.7,8.2,20.7,8.1,14.5,14.3z M28.9,60h-6.5c-0.8,0-1.4-0.6-1.4-1.4v-0.7h9.3v0.7C30.3,59.4,29.7,60,28.9,60z M31.9,55.9H19.4
		c-0.5,0-1-0.4-1-1v-1.4h14.4v1.4C32.8,55.5,32.4,55.9,31.9,55.9z M34.7,49.6v1c0,0.5-0.4,0.9-0.9,0.9H17.4c-0.5,0-0.9-0.4-0.9-0.9
		v-1c0-0.5,0.4-0.9,0.9-0.9h16.4C34.3,48.7,34.7,49.1,34.7,49.6z M35.4,35.3c-3.4,3.4-3.9,6.6-4,11.4H19.8c-0.1-4.8-0.5-8-4-11.5
		c-2.6-2.6-4-6.1-4-9.8s1.5-7.2,4.1-9.8s6.1-4,9.7-4l0,0c3.7,0,7.2,1.5,9.8,4.1C40.8,21.2,40.8,29.9,35.4,35.3z"/>
	<path d="M25.5,5.1c0.6,0,1-0.4,1-1V1c0-0.6-0.4-1-1-1s-1,0.4-1,1v3.1C24.5,4.7,24.9,5.1,25.5,5.1z"/>
	<path d="M13.9,7.5C14.1,7.8,14.4,8,14.8,8c0.2,0,0.3,0,0.5-0.1c0.5-0.3,0.6-0.9,0.4-1.4l-1.6-2.7c-0.3-0.5-0.9-0.6-1.4-0.4
		c-0.5,0.3-0.6,0.9-0.4,1.4L13.9,7.5z"/>
	<path d="M3.7,14.2l2.7,1.6c0.2,0.1,0.3,0.1,0.5,0.1c0.3,0,0.7-0.2,0.9-0.5c0.3-0.5,0.1-1.1-0.4-1.4l-2.7-1.6
		c-0.5-0.3-1.1-0.1-1.4,0.4C3.1,13.3,3.2,13.9,3.7,14.2z"/>
	<path d="M47.3,37l-2.8-1.6c-0.5-0.3-1.1-0.1-1.4,0.4c-0.3,0.5-0.1,1.1,0.4,1.4l2.8,1.6c0.2,0.1,0.3,0.1,0.5,0.1
		c0.3,0,0.7-0.2,0.9-0.5C47.9,37.9,47.8,37.3,47.3,37z"/>
	<path d="M5.1,25.6c0-0.6-0.4-1-1-1H1c-0.6,0-1,0.4-1,1s0.4,1,1,1h3.1C4.6,26.6,5.1,26.1,5.1,25.6z"/>
	<path d="M50.1,24.6h-3.2c-0.6,0-1,0.4-1,1s0.4,1,1,1h3.2c0.6,0,1-0.4,1-1S50.6,24.6,50.1,24.6z"/>
	<path d="M44,15.9c0.2,0,0.3,0,0.5-0.1l2.7-1.6c0.5-0.3,0.6-0.9,0.4-1.4s-0.9-0.6-1.4-0.4L43.5,14c-0.5,0.3-0.6,0.9-0.4,1.4
		C43.4,15.7,43.7,15.9,44,15.9z"/>
	<path d="M6.4,35.4L3.7,37c-0.5,0.3-0.6,0.9-0.4,1.4c0.2,0.3,0.5,0.5,0.9,0.5c0.2,0,0.3,0,0.5-0.1l2.7-1.6c0.5-0.3,0.6-0.9,0.4-1.4
		C7.5,35.3,6.9,35.1,6.4,35.4z"/>
	<path d="M35.7,7.9C35.9,8,36,8,36.2,8c0.3,0,0.7-0.2,0.9-0.5l1.6-2.7c0.3-0.5,0.1-1.1-0.4-1.4s-1.1-0.1-1.4,0.4l-1.6,2.7
		C35.1,7,35.2,7.6,35.7,7.9z"/>
	<path d="M28.8,21.8C27,19.9,23.9,16,23.9,16c-0.2-0.2-0.4-0.3-0.7-0.4c-0.3,0-0.5,0.1-0.7,0.2c-0.3,0.3-7.6,6.3-4.7,14.6
		c1.5,4.1,4.5,6.7,8.9,7.7c0.1,1.5,0,3-0.2,4.5c-0.1,0.5,0.3,1.1,0.9,1.1h0.1c0.5,0,0.9-0.4,1-0.9c0.2-1.7,0.3-3.5,0.2-5.2
		C30,36.1,35.7,28.9,28.8,21.8z M25.3,25.9c-0.3-0.5-0.9-0.7-1.4-0.4c-0.5,0.3-0.7,0.9-0.4,1.4c1.6,2.9,2.5,6,2.9,9.2
		c-3.4-0.9-5.7-3-6.8-6.3c-1.9-5.5,1.7-10,3.4-11.7c1,1.3,3,3.7,4.4,5.1c4.5,4.6,2.6,9.2,0.9,11.7C27.8,31.7,26.8,28.7,25.3,25.9z"
		/>
</g>
</svg>
